^C:\USERS\SERGIO\DOCUMENTS\ESTUDIO\WORKSPACE\ESTRUCTURA DE DATOS Y ALGORITMOS\TEMA9\TEMA9\DEBUG\MAIN.OBJ
C:\USERS\SERGIO\DOCUMENTS\ESTUDIO\WORKSPACE\ESTRUCTURA DE DATOS Y ALGORITMOS\TEMA9\DEBUG\TEMA9.ILK
C:\USERS\SERGIO\DOCUMENTS\ESTUDIO\WORKSPACE\ESTRUCTURA DE DATOS Y ALGORITMOS\TEMA9\DEBUG\TEMA9.EXE
C:\USERS\SERGIO\DOCUMENTS\ESTUDIO\WORKSPACE\ESTRUCTURA DE DATOS Y ALGORITMOS\TEMA9\DEBUG\TEMA9.PDB
